<?xml version="1.0" encoding="utf-8"?>
<!-- Generator: Adobe Illustrator 23.0.1, SVG Export Plug-In . SVG Version: 6.00 Build 0)  -->
<svg version="1.1" id="Layer_1" xmlns="http://www.w3.org/2000/svg" xmlns:xlink="http://www.w3.org/1999/xlink" x="0px" y="0px"
	 viewBox="0 0 32 32" style="enable-background:new 0 0 32 32;" xml:space="preserve">
<style type="text/css">
	.st0{fill:#828282;}
	.st1{fill:#E6E6E6;}
</style>
<path class="st0" d="M16,0C7.2,0,0,7.2,0,16s7.2,16,16,16s16-7.2,16-16S24.8,0,16,0 M16,4c6.6,0,12,5.4,12,12s-5.4,12-12,12
	S4,22.6,4,16S9.4,4,16,4"/>
<path class="st1" d="M16,0c8.8,0,16,7.2,16,16h-4c0-6.6-5.4-12-12-12V0z">
<animateTransform  accumulate="none" additive="replace" attributeName="transform" calcMode="linear" dur="0.8s" fill="remove" from="0 16 16" repeatCount="indefinite" restart="always" to="360 16 16" type="rotate">
		</animateTransform>
</path>
</svg>
